^E:\WINDOWSTOOLS\WINDOWSTOOLS\X64\DEBUG\STDAFX.OBJ|E:\WINDOWSTOOLS\WINDOWSTOOLS\X64\DEBUG\WINDOWSTOOLS.OBJ|E:\WINDOWSTOOLS\WINDOWSTOOLS\X64\DEBUG\WINDOWSTOOLS.RES|E:\WINDOWSTOOLS\WINDOWSTOOLS\X64\DEBUG\WINDOWSTOOLSDLG.OBJ
E:\WINDOWSTOOLS\X64\DEBUG\WINDOWSTOOLS.ILK
E:\WINDOWSTOOLS\X64\DEBUG\WINDOWSTOOLS.EXE
E:\WINDOWSTOOLS\X64\DEBUG\WINDOWSTOOLS.PDB
